
<svg xmlns="http://www.w3.org/2000/svg" version="1.1" xmlns:xlink="http://www.w3.org/1999/xlink" preserveAspectRatio="none" x="0px" y="0px" width="300px" height="250px" viewBox="0 0 300 250">
<defs>
<g id="Layer1_0_FILL">
<path fill="#FFFFFF" stroke="none" d="
M 62.75 58.2
Q 62.65 57.55 62.45 56.9
L 61.15 51.45 58.95 51.45 62.05 62.65 63.9 62.65 65.35 57
Q 65.55 56.35 65.75 55.7 65.9 55 65.95 54.6 66.05 55 66.2 55.7 66.35 56.35 66.5 57
L 68.05 62.65 69.9 62.65 73.05 51.45 70.85 51.45 69.55 56.9
Q 69.35 57.55 69.25 58.2 69.1 58.9 69 59.35 68.85 58.9 68.75 58.2 68.55 57.55 68.4 56.9
L 66.9 51.45 65.15 51.45 63.6 56.9
Q 63.45 57.55 63.25 58.2 63.15 58.9 63 59.35 62.95 58.9 62.75 58.2
M 142.75 57.35
Q 142.8 57.15 142.8 56.85 142.8 55.25 142.3 54.05 141.8 52.8 140.7 52 139.7 51.25 138.1 51.2 136.65 51.2 135.55 51.85 134.5 52.55 133.8 53.85 133.2 55.15 133.2 57.05 133.2 58.9 133.9 60.2 134.55 61.5 135.65 62.2 136.7 62.85 138.05 62.85 139.3 62.85 140.2 62.5 141.2 62.1 141.9 61.4
L 140.6 59.95
Q 140.05 60.4 139.45 60.65 138.9 60.9 138.15 60.9 137.15 60.9 136.35 60.15 135.55 59.45 135.35 57.8
L 142.75 57.8
Q 142.75 57.65 142.75 57.35
M 139.45 53.55
Q 140 54 140.3 54.6 140.55 55.25 140.6 56.05
L 135.4 56.05
Q 135.55 54.65 136.2 53.95 136.85 53.2 137.95 53.2 138.85 53.2 139.45 53.55
M 83.3 61.4
L 82 59.95
Q 81.45 60.4 80.85 60.65 80.3 60.9 79.55 60.9 78.55 60.9 77.75 60.15 76.95 59.45 76.75 57.8
L 84.15 57.8
Q 84.15 57.65 84.15 57.35 84.2 57.15 84.2 56.85 84.2 55.25 83.65 54.05 83.2 52.8 82.1 52 81.1 51.25 79.5 51.2 78.05 51.2 76.95 51.85 75.9 52.55 75.2 53.85 74.6 55.15 74.6 57.05 74.6 58.9 75.3 60.2 75.95 61.5 77.05 62.2 78.1 62.85 79.45 62.85 80.7 62.85 81.6 62.5 82.6 62.1 83.3 61.4
M 81.7 54.6
Q 81.9 55.25 82 56.05
L 76.8 56.05
Q 76.95 54.65 77.55 53.95 78.25 53.2 79.3 53.2 80.25 53.2 80.85 53.55 81.4 54 81.7 54.6
M 98.15 53.65
Q 98.85 54 99.5 54.65
L 100.75 53.15
Q 100 52.2 99 51.7 98.05 51.2 96.85 51.2 95.45 51.2 94.35 51.95 93.3 52.6 92.6 53.95 91.95 55.2 91.95 57.05 91.95 58.8 92.6 60.15 93.2 61.4 94.3 62.15 95.4 62.85 96.8 62.85 97.75 62.85 98.55 62.55 99.25 62.25 99.8 61.8 100.35 61.35 100.75 60.75
L 99.4 59.45
Q 98.7 60.1 98.15 60.45 97.55 60.75 96.85 60.75 95.95 60.75 95.35 60.25 94.8 59.8 94.5 58.95 94.15 58.1 94.15 57 94.2 55.25 94.85 54.3 95.6 53.3 96.8 53.3 97.5 53.3 98.15 53.65
M 112.05 60.15
Q 112.75 58.8 112.75 57 112.75 55.25 112.05 53.95 111.4 52.65 110.3 51.95 109.15 51.2 107.7 51.2 106.35 51.2 105.2 51.95 104.1 52.6 103.45 53.95 102.75 55.2 102.75 57.05 102.75 58.8 103.45 60.1 104.05 61.4 105.1 62.15 106.25 62.85 107.65 62.85 109.1 62.85 110.25 62.15 111.4 61.5 112.05 60.15
M 107.65 53.3
Q 109 53.3 109.75 54.35 110.5 55.3 110.5 57.05 110.5 58.1 110.15 58.95 109.85 59.8 109.25 60.25 108.55 60.75 107.8 60.75 106.5 60.75 105.75 59.8 105 58.8 104.95 57 105 55.3 105.65 54.35 106.4 53.3 107.65 53.3
M 119.75 53.25
Q 120.9 53.2 121.35 53.95 121.9 54.65 121.9 56.35
L 121.9 62.65 124.1 62.65 124.1 56.1
Q 124.1 54.7 124.65 54 125.2 53.25 126.25 53.25 127.35 53.2 127.9 53.95 128.4 54.65 128.4 56.35
L 128.4 62.65 130.6 62.65 130.6 56.2
Q 130.6 53.75 129.65 52.5 128.7 51.2 126.75 51.2 125.5 51.2 124.7 51.7 123.9 52.1 123.35 52.85 122.9 52.05 122.15 51.65 121.45 51.2 120.3 51.2 119.45 51.2 118.7 51.55 118.05 51.95 117.65 52.55
L 117.65 51.45 115.45 51.45 115.45 62.65 117.65 62.65 117.65 56.1
Q 117.65 54.7 118.15 54 118.65 53.25 119.75 53.25
M 89.25 47.1
L 87.05 48.25 87.05 62.65 89.25 62.65 89.25 47.1
M 154.1 47.1
L 151.95 48.25 151.95 51.45 150.35 51.45 150.35 53.45 151.95 53.45 151.95 59.9
Q 151.95 61.4 152.6 62.15 153.25 62.85 154.5 62.85 155.1 62.85 155.65 62.75 156.15 62.55 156.6 62.4
L 156.85 60.4
Q 156.55 60.55 156.1 60.75 155.7 60.9 155.2 60.9 154.65 60.9 154.35 60.55 154.05 60.25 154.1 59.55
L 154.1 53.45 156.85 53.45 156.85 51.45 154.1 51.45 154.1 47.1
M 166.5 51.95
Q 165.35 51.2 163.9 51.2 162.5 51.2 161.35 51.95 160.3 52.6 159.6 53.95 158.95 55.2 158.95 57.05 158.95 58.8 159.6 60.1 160.2 61.4 161.3 62.15 162.45 62.85 163.85 62.85 165.3 62.85 166.45 62.15 167.6 61.5 168.25 60.15 168.9 58.8 168.9 57 168.9 55.25 168.25 53.95 167.6 52.65 166.5 51.95
M 163.85 53.3
Q 165.2 53.3 165.95 54.35 166.7 55.3 166.7 57.05 166.7 58.1 166.3 58.95 166 59.8 165.4 60.25 164.75 60.75 163.95 60.75 162.7 60.75 161.9 59.8 161.2 58.8 161.15 57 161.2 55.3 161.85 54.35 162.6 53.3 163.85 53.3 Z"/>
</g>
</defs>

<g transform="matrix( 1.397491455078125, 0, 0, 1.397491455078125, -31.45,-34.95) ">
<use xlink:href="#Layer1_0_FILL"/>
</g>
</svg>
