
<svg xmlns="http://www.w3.org/2000/svg" version="1.1" xmlns:xlink="http://www.w3.org/1999/xlink" preserveAspectRatio="none" x="0px" y="0px" width="300px" height="250px" viewBox="0 0 300 250">
<defs>
<g id="Layer1_0_FILL">
<path fill="#FFFFFF" stroke="none" d="
M 215.1 51.45
L 212.9 51.45 212.9 58
Q 212.9 59.35 212.3 60.1 211.7 60.8 210.6 60.8 209.45 60.9 208.9 60.15 208.3 59.45 208.3 57.8
L 208.3 51.45 206.1 51.45 206.1 57.85
Q 206.1 60.35 207.1 61.6 208.15 62.85 210.05 62.85 210.95 62.85 211.7 62.5 212.5 62.2 212.9 61.55
L 212.9 62.65 215.1 62.65 215.1 51.45
M 184.7 61.8
Q 185.25 61.35 185.65 60.75
L 184.25 59.45
Q 183.6 60.1 183.05 60.45 182.45 60.75 181.75 60.75 180.8 60.75 180.2 60.25 179.7 59.8 179.35 58.95 179 58.1 179 57 179.05 55.25 179.75 54.3 180.45 53.3 181.65 53.3 182.4 53.3 183.05 53.65 183.7 54 184.4 54.65
L 185.65 53.15
Q 184.85 52.2 183.9 51.7 182.95 51.2 181.75 51.2 180.35 51.2 179.25 51.95 178.15 52.6 177.5 53.95 176.85 55.2 176.85 57.05 176.85 58.8 177.5 60.15 178.1 61.4 179.2 62.15 180.3 62.85 181.65 62.85 182.65 62.85 183.4 62.55 184.15 62.25 184.7 61.8
M 201.05 51.95
Q 199.9 51.2 198.45 51.2 197.1 51.2 195.95 51.95 194.85 52.6 194.2 53.95 193.5 55.2 193.5 57.05 193.5 58.8 194.2 60.1 194.8 61.4 195.85 62.15 197 62.85 198.4 62.85 199.85 62.85 201 62.15 202.15 61.5 202.8 60.15 203.5 58.8 203.5 57 203.5 55.25 202.8 53.95 202.15 52.65 201.05 51.95
M 198.4 53.3
Q 199.75 53.3 200.5 54.35 201.25 55.3 201.25 57.05 201.25 58.1 200.9 58.95 200.6 59.8 200 60.25 199.3 60.75 198.55 60.75 197.25 60.75 196.45 59.8 195.75 58.8 195.7 57 195.75 55.3 196.4 54.35 197.15 53.3 198.4 53.3
M 190.8 47.1
L 188.6 48.25 188.6 62.65 190.8 62.65 190.8 47.1
M 227.25 47.1
L 225.05 48.25 225.05 52.5
Q 224.55 52 223.85 51.65 223.1 51.25 222.25 51.2 221.05 51.2 220.1 51.8 219.05 52.5 218.45 53.7 217.85 54.95 217.85 56.9 217.85 59 218.4 60.35 219 61.65 220 62.25 220.95 62.85 222.15 62.85 223 62.85 223.7 62.5 224.45 62.15 225.05 61.55
L 225.05 62.65 227.25 62.65 227.25 47.1
M 225.05 54.7
L 225.05 59.45
Q 224.65 59.95 223.95 60.4 223.3 60.8 222.55 60.8 221.3 60.9 220.7 59.85 220.05 58.9 220.05 56.85 220.05 55 220.65 54.15 221.25 53.25 222.45 53.25 223 53.25 223.55 53.5 224 53.7 224.45 54.05 224.8 54.4 225.05 54.7
M 246.5 55.3
Q 245.85 54.25 244.7 53.75 243.55 53.25 242.2 53.25 240.9 53.25 239.95 53.55 239.05 53.8 238.3 54.45 239 52.1 240.7 50.9 242.4 49.7 245 49.6
L 245 47.5
Q 242.35 47.6 240.6 48.5 238.75 49.45 237.75 50.85 236.7 52.25 236.25 53.85 235.75 55.45 235.75 56.95 235.8 59.05 236.55 60.35 237.25 61.65 238.5 62.25 239.8 62.85 241.35 62.85 243 62.85 244.3 62.35 245.65 61.7 246.4 60.65 247.15 59.55 247.15 57.9 247.15 56.35 246.5 55.3
M 244 56
Q 244.95 56.6 244.95 58 244.95 59.25 244 59.95 243.1 60.7 241.4 60.7 240.35 60.7 239.55 60.35 238.85 59.9 238.4 59.3 238.05 58.7 238.05 58 238.05 56.65 239 56.05 239.9 55.4 241.55 55.4 243.2 55.4 244 56
M 268.45 47.5
Q 266.8 47.5 265.45 48.05 264.15 48.6 263.35 49.7 262.65 50.85 262.55 52.5 262.65 54.05 263.3 55.1 263.95 56.1 265.1 56.6 266.25 57.15 267.6 57.15 268.9 57.15 269.8 56.85 270.75 56.55 271.5 55.9 270.8 58.3 269.1 59.45 267.35 60.65 264.8 60.75
L 264.8 62.85
Q 267.4 62.75 269.2 61.85 271.05 60.95 272.05 59.55 273.1 58.1 273.55 56.55 274.05 54.9 274.05 53.45 274 51.35 273.25 50 272.55 48.75 271.25 48.15 270 47.45 268.45 47.5
M 268.35 49.7
Q 269.45 49.7 270.25 50.05 270.95 50.4 271.4 51.05 271.75 51.7 271.75 52.4 271.75 53.7 270.8 54.35 269.9 55 268.25 55 266.6 55 265.75 54.4 264.85 53.75 264.85 52.4 264.85 51.15 265.75 50.4 266.7 49.7 268.35 49.7
M 259.25 47.75
L 256.65 47.75 249 57.25 249 59.35 257.05 59.35 257.05 62.65 259.25 62.65 259.25 59.3 261.2 59.3 261.2 57.3 259.25 57.3 259.25 47.75
M 255.8 52
Q 256.15 51.5 256.55 51.05 256.9 50.55 257.15 50.25 257.15 50.55 257.15 51.05 257.05 51.5 257.05 52 257.05 52.55 257.05 52.95
L 257.05 57.3 253.95 57.3
Q 253.5 57.3 253.1 57.3 252.6 57.3 252.2 57.3 251.75 57.3 251.5 57.3 251.75 57.05 252.2 56.6 252.55 56.1 252.9 55.7
L 255.8 52 Z"/>
</g>
</defs>

<g transform="matrix( 1.397491455078125, 0, 0, 1.397491455078125, -139.95,-3.95) ">
<use xlink:href="#Layer1_0_FILL"/>
</g>
</svg>
