
<svg xmlns="http://www.w3.org/2000/svg" version="1.1" xmlns:xlink="http://www.w3.org/1999/xlink" preserveAspectRatio="none" x="0px" y="0px" width="300px" height="250px" viewBox="0 0 300 250">
<defs>
<g id="Layer2_0_FILL">
<path fill="#FFFFFF" stroke="none" d="
M 193.65 177.85
L 197 177.85 197 186.9 200.3 186.9 200.3 177.85 203.6 177.85 203.6 175 193.65 175 193.65 177.85
M 192.4 177.75
L 192.4 175 183.3 175 183.3 186.9 192.55 186.9 192.55 184.15 186.55 184.15 186.55 182.1 190.1 182.1 190.1 179.35 186.55 179.35 186.55 177.75 192.4 177.75
M 178.3 179.2
L 181.9 175 177.85 175 176.9 176.2
Q 176.5 176.7 176.1 177.25 175.65 177.85 175.25 178.4 174.85 178.95 174.6 179.35 174.65 178.65 174.65 177.9 174.65 177.15 174.65 176.4
L 174.65 175 171.3 175 171.3 186.9 174.65 186.9 174.65 183.3 175.9 181.85 178.4 186.9 182.3 186.9 178.3 179.2
M 169.05 176.4
Q 168.5 175.6 167.55 175.2 166.6 174.8 165.15 174.8 163.55 174.8 162.35 175.55 161.1 176.3 160.4 177.65 159.75 179 159.7 180.95 159.7 182.7 160.35 184.1 160.95 185.5 162.15 186.3 163.35 187.05 165.15 187.1 166.55 187.05 167.5 186.65 168.45 186.2 169.1 185.5 169.7 184.8 170.1 184
L 167.3 182.55
Q 167 183.1 166.7 183.45 166.4 183.85 166.05 184.05 165.7 184.2 165.2 184.2 164.45 184.2 164 183.8 163.55 183.35 163.35 182.6 163.15 181.85 163.15 180.95 163.15 180 163.35 179.25 163.6 178.5 164 178.1 164.45 177.7 165.15 177.7 165.65 177.7 166 177.9 166.4 178.1 166.6 178.5 166.85 178.9 167.05 179.5
L 170.05 178.3
Q 169.65 177.2 169.05 176.4
M 158.2 175
L 154.85 175 154.85 186.9 158.2 186.9 158.2 175
M 150 177.85
L 153.3 177.85 153.3 175 143.35 175 143.35 177.85 146.7 177.85 146.7 186.9 150 186.9 150 177.85
M 133.35 182.45
L 137.75 175 134 175 133.05 176.8
Q 132.6 177.75 132.25 178.55 131.9 179.35 131.7 179.9 131.55 179.35 131.2 178.55 130.85 177.75 130.35 176.8
L 129.45 175 125.6 175 130 182.5 130 186.9 133.35 186.9 133.35 182.45
M 114.3 181.8
Q 114.3 183.7 114.95 184.85 115.65 186.05 116.8 186.55 117.95 187.1 119.5 187.1 121 187.1 122.15 186.55 123.35 186.05 124.05 184.85 124.7 183.7 124.75 181.8
L 124.75 175 121.35 175 121.35 181.8
Q 121.35 182.95 120.95 183.55 120.5 184.2 119.55 184.2 118.55 184.2 118.1 183.55 117.65 182.95 117.65 181.8
L 117.65 175 114.3 175 114.3 181.8
M 112.55 178.1
Q 112.6 176.6 111.6 175.8 110.6 175 108.4 175
L 102.65 175 102.65 186.9 108.35 186.9
Q 110.6 186.9 111.75 185.9 112.85 184.9 112.85 183.05 112.85 182.05 112.4 181.4 111.95 180.75 111.15 180.45 111.75 180.1 112.15 179.55 112.55 179.05 112.55 178.1
M 109.35 178.55
Q 109.35 178.95 109.1 179.2 108.85 179.45 108.3 179.45
L 105.8 179.45 105.8 177.6 108.3 177.6
Q 108.9 177.6 109.1 177.85 109.35 178.15 109.35 178.55
M 105.8 184.3
L 105.8 182 108.45 182
Q 109 182 109.3 182.3 109.6 182.6 109.6 183.1 109.6 183.65 109.3 183.95 109.05 184.3 108.4 184.3
L 105.8 184.3 Z"/>
</g>
</defs>

<g transform="matrix( 1, 0, 0, 1, 0,0) ">
<use xlink:href="#Layer2_0_FILL"/>
</g>
</svg>
