
<svg xmlns="http://www.w3.org/2000/svg" version="1.1" xmlns:xlink="http://www.w3.org/1999/xlink" preserveAspectRatio="none" x="0px" y="0px" width="300px" height="250px" viewBox="0 0 300 250">
<defs>
<g id="Layer2_0_FILL">
<path fill="#505F68" stroke="none" d="
M 180.45 221.1
Q 179.75 220.45 178.45 220.45 175.4 220.45 174.95 223.8
L 174.85 224.8
Q 174.85 227.55 177.65 227.55 180.7 227.55 181.15 224.2 181.25 223.85 181.25 223.15 181.25 221.85 180.45 221.1
M 178.75 225.6
Q 178.4 226.05 177.75 226.05 176.75 226.05 176.75 224.85
L 176.8 224
Q 177.2 221.95 178.35 221.95 179.35 221.95 179.35 223.15
L 179.3 224
Q 179.1 225.15 178.75 225.6
M 171.3 222.2
Q 171.4 222 171.65 220.65 170.95 220.45 169.9 220.45 168.45 220.45 167.65 221.15 166.9 221.85 166.9 222.85 166.9 224.05 168.15 224.55 169.4 225.1 169.4 225.35 169.4 225.95 168.65 225.95 167.55 225.95 166.75 225.5 166.45 225.85 166.15 227.05 167 227.55 168.25 227.55 169.65 227.55 170.45 226.9 171.25 226.25 171.25 225.15 171.25 223.95 170 223.4 168.7 222.85 168.7 222.55 168.7 221.95 169.5 221.95 170.55 221.95 171.3 222.2
M 197.25 221.2
L 197.15 221.2 197.8 217.65 196 217.8 194.3 227.45 196.1 227.45 196.95 222.35
Q 197.6 221.95 198.15 221.95 199 221.95 199 222.6
L 199 222.8 198.2 227.45 200 227.45 200.85 222.55 200.9 222
Q 200.9 220.45 199.1 220.45 198 220.45 197.25 221.2
M 190.75 219.15
L 190.55 220.6 189.75 220.6 189.45 222.1 190.25 222.1 189.7 225.1 189.65 225.75
Q 189.65 227.55 191.65 227.55 192.6 227.55 193.2 227.3
L 193.25 225.7
Q 192.8 225.9 192.2 225.9 191.5 225.9 191.5 225.45
L 191.5 225.2 192 222.1 193.7 222.1
Q 193.85 221.75 194.1 220.6
L 192.3 220.6 192.6 218.85
Q 191.55 218.95 190.75 219.15
M 186.75 219.3
Q 187.05 218.5 187.05 217.7
L 186.15 217.65
Q 183.95 217.65 183.5 220.1
L 183.4 220.6 182.6 220.6 182.35 222.1 183.1 222.1 182.2 227.45 183.95 227.45 184.85 222.1 186.25 222.1
Q 186.55 221.05 186.6 220.6
L 185.15 220.6 185.25 219.95
Q 185.4 219.25 186.05 219.25
L 186.75 219.3
M 241.4 224.5
Q 241.7 223.65 241.7 222.8 241.7 220.45 239.25 220.45 236.45 220.45 235.8 223.95
L 235.75 224.85
Q 235.75 227.55 238.55 227.55 240 227.55 240.85 227.15
L 240.75 225.5
Q 239.7 225.9 238.9 225.9 237.6 225.9 237.6 224.95
L 237.65 224.5 241.4 224.5
M 239.1 221.8
Q 239.95 221.8 239.95 222.65
L 239.85 223.35 237.85 223.35
Q 238.15 221.8 239.1 221.8
M 204.75 227.55
Q 206.15 227.55 207.1 227.15 207.1 226.9 206.95 225.5 205.9 225.9 205.05 225.9 203.75 225.9 203.75 224.95
L 203.8 224.5 207.55 224.5
Q 207.85 223.65 207.85 222.8 207.85 220.45 205.4 220.45 202.6 220.45 202 223.95
L 201.95 224.85
Q 201.95 227.55 204.75 227.55
M 205.25 221.8
Q 206.1 221.8 206.1 222.65
L 206.05 223.35 204 223.35
Q 204.35 221.8 205.25 221.8
M 220.85 220.45
Q 219.8 220.45 219.05 220.7
L 218.95 221.65 219 222.3
Q 219.65 222 220.5 222 221.35 222 221.8 222.25
L 221.6 223.45 220.5 223.5
Q 219.15 223.55 218.55 223.9 217.8 224.35 217.6 225.35
L 217.55 225.8
Q 217.55 227.55 219.45 227.55 220.55 227.55 221.35 226.75
L 221.4 226.75
Q 221.65 227.55 222.7 227.55 223.7 227.55 223.9 226.4
L 224 225.75 223.35 225.75
Q 222.95 225.75 222.95 225.5
L 223 225.3 223.7 221.25
Q 222.65 220.45 220.85 220.45
M 220.35 224.65
L 221.45 224.6 221.2 225.85
Q 220.7 226.2 220.05 226.2 219.35 226.2 219.35 225.6
L 219.35 225.4
Q 219.55 224.65 220.35 224.65
M 215.55 220.6
Q 215.05 220.45 214.35 220.45 213.1 220.45 212.3 221.15 211.55 221.9 211.55 223.15 211.55 224 212.05 224.5 211.45 225.2 211.05 226 211.1 226.5 211.4 227 210.45 227.65 210.45 228.5 210.45 230.25 213.15 230.25 214.75 230.25 215.65 229.6 216.6 228.95 216.6 227.8 216.6 225.95 214.5 225.95
L 213.05 225.95
Q 212.8 225.95 212.8 225.75 212.8 225.5 213.2 225.05 213.55 225.2 214.15 225.2 215.3 225.2 216.05 224.55 216.8 223.95 216.8 222.75 216.8 222.3 216.65 222
L 216.65 221.95 217.45 221.9 217.75 220.6 215.55 220.6
M 214.35 221.75
Q 215.15 221.75 215.15 222.6 215.15 223.9 214.05 223.9 213.25 223.9 213.25 223.1 213.25 221.75 214.35 221.75
M 214.45 227.5
Q 214.9 227.5 214.9 227.95 214.9 228.85 213.35 228.85 212.15 228.85 212.15 228.05 212.15 227.8 212.3 227.5
L 214.45 227.5
M 227.7 221.2
L 227.6 221.2 227.7 220.55
Q 227 220.55 225.95 220.65
L 224.75 227.45 226.5 227.45 227.45 222.35
Q 228.05 221.95 228.55 221.95 229.25 221.95 229.25 222.55
L 228.4 227.45 230.15 227.45 231.05 222.35
Q 231.55 221.95 232.1 221.95 232.85 221.95 232.85 222.6
L 232.85 222.8 232.05 227.45 233.8 227.45 234.65 222.55 234.7 222
Q 234.7 220.45 232.95 220.45 231.85 220.45 230.95 221.35 230.75 220.45 229.55 220.45 228.5 220.45 227.7 221.2
M 278.15 230.45
Q 278.35 228.55 278.35 227.9 278.35 222.8 273.8 222.8 271.3 222.8 269.75 224.65 268.25 226.5 268.25 229.6 268.25 231.55 269.25 232.65 270.2 233.6 271.7 233.6 273.25 233.6 274.3 232.5
L 274.45 232.5
Q 273.95 234.8 273.05 235.7 272.3 236.4 270.9 236.4 269.45 236.4 268.3 236.15 267.75 237.45 267.75 239.15 269.05 239.55 270.7 239.55 273.7 239.55 275.45 237.55 277.45 235.35 278.15 230.45
M 273.7 225.6
Q 275.25 225.6 275.25 227.55 275.25 230.95 273.2 230.95 271.45 230.95 271.45 229.15 271.45 225.6 273.7 225.6
M 244.3 226.4
Q 244.3 225.55 243.5 225.55 242.3 225.55 242.3 226.7 242.3 227.55 243.15 227.55 244.3 227.55 244.3 226.4
M 258.5 225.5
L 258.6 226.6 262.05 226.2 260.85 233.05 257 233.05 256.45 236.2 265.95 236.2
Q 266.55 234.65 266.75 233.05
L 264 233.05 265.75 223.05 262.75 223.05 258.7 223.85
Q 258.5 224.8 258.5 225.5
M 289.6 230.75
L 290 228.45 286.2 228.45 286.95 224.15 284.65 224.15 283.9 228.45 280.05 228.45 279.7 230.75 283.45 230.75 282.7 235.05 285.05 235.05 285.8 230.75 289.6 230.75
M 101.2 222
Q 101.2 220.45 99.4 220.45 98.3 220.45 97.55 221.2
L 97.45 221.2 97.6 220.55
Q 96.85 220.55 95.75 220.65
L 94.6 227.45 96.35 227.45 97.25 222.35
Q 97.9 221.95 98.45 221.95 99.3 221.95 99.3 222.55
L 99.3 222.8 98.5 227.45 100.3 227.45 101.2 222
M 90 218.55
L 88.1 218.55 86.5 227.45 88.45 227.45 88.9 224.75 90.05 223.6 91.55 227.5 93.5 227.35
Q 92.65 224.8 91.45 222.2
L 94.95 218.65 92.85 218.5 91.6 219.75
Q 90.1 221.5 89.45 222.4
L 89.35 222.4 90 218.55
M 107.85 221.1
Q 107.15 220.45 105.85 220.45 102.85 220.45 102.3 223.8
L 102.2 224.8
Q 102.2 226.15 103 226.85 103.75 227.55 105.05 227.55 108 227.55 108.6 224.2
L 108.7 223.15
Q 108.7 221.85 107.85 221.1
M 106.75 223.15
L 106.65 224
Q 106.35 226.05 105.15 226.05 104.1 226.05 104.1 224.85
L 104.2 224
Q 104.55 221.95 105.7 221.95 106.75 221.95 106.75 223.15
M 119.5 220.65
Q 118.65 220.55 117.95 220.55
L 116.55 224.4 116.3 225.35 116.25 225.35 115.8 220.6 114.05 220.6 112.25 224.45 111.95 225.35 111.85 225.35 111.95 220.55
Q 111.3 220.55 110.25 220.65
L 110.2 222.75
Q 110.2 225.5 110.45 227.45
L 112.25 227.45 114.1 223.55
Q 114.2 223.4 114.45 222.6
L 114.55 222.6 115.05 227.45 116.9 227.45
Q 118.4 224.15 119.5 220.65
M 150.8 233.4
Q 149.5 233.4 148.7 234 147.9 234.6 147.7 235.7 147.55 236.7 148.05 237.4 148.65 238.1 150 238.1
L 151.25 238.1 151.25 238.15
Q 151.55 238.15 151.6 238.3 151.8 238.5 151.7 238.65
L 151.7 238.75
Q 151.55 239.2 151 239.2
L 147.3 239.2 147 241 150.75 241
Q 153.25 241 153.65 238.65 153.85 237.55 153.3 236.95 152.7 236.2 151.4 236.2
L 150.1 236.2
Q 149.85 236.2 149.7 236.1 149.6 235.9 149.65 235.7
L 149.65 235.6
Q 149.85 235.15 150.3 235.15
L 153.75 235.15 154 233.4 150.8 233.4
M 161.25 234.3
Q 160.5 233.4 158.75 233.4 157.1 233.4 155.95 234.4 154.85 235.4 154.55 237.25 154.25 239.05 155.1 240.05 155.95 240.95 157.45 240.95
L 160.55 240.95 160.85 239.2 157.7 239.2
Q 157.05 239.2 156.75 238.9 156.5 238.6 156.5 238.1
L 161.65 238.1 161.9 236.25
Q 161.9 235.05 161.25 234.3
M 159.85 236.3
L 159.85 236.35 156.85 236.35
Q 157.3 235.15 158.65 235.15 159.35 235.15 159.65 235.45 159.85 235.7 159.85 236.3
M 159.25 224
L 159.15 224.95
Q 159.15 227.55 161.25 227.55 162.15 227.55 162.85 226.85
L 162.9 226.85 162.85 227.45 164.55 227.45 166.3 217.65 164.5 217.8 164 220.65
Q 163.4 220.45 162.8 220.45 159.75 220.45 159.25 224
M 161.05 224.9
Q 161.05 224.3 161.15 223.95 161.55 221.95 162.8 221.95 163.3 221.95 163.75 222.15
L 163.15 225.75
Q 162.65 226 162.05 226 161.05 226 161.05 224.9
M 140.1 236.7
L 139.5 240.95 141.55 240.95 142.2 236.7
Q 142.3 236.2 142.7 235.8 143.1 235.45 143.6 235.45 144.75 235.45 144.6 236.7
L 143.9 240.95 146 240.95 146.7 236.7
Q 146.9 235.15 146.15 234.3 145.45 233.4 143.95 233.4 142.5 233.4 141.4 234.35 140.35 235.25 140.1 236.7
M 124.5 232.15
Q 123.55 232.9 123.3 234.25
L 123.25 234.85
Q 123.25 235.7 123.75 236.3 124.5 237.2 126.15 237.2
L 127.75 237.2
Q 128.45 237.2 128.75 237.45 128.9 237.6 128.9 238
L 128.9 238.25
Q 128.8 239.15 127.45 239.15
L 123.1 239.15 122.8 240.95 123.1 240.95 122.95 241 127.55 241
Q 130.5 241 131.05 238.35
L 131.15 237.45
Q 131.15 236.55 130.65 236.05 129.9 235.1 128.25 235.1
L 126.6 235.1
Q 125.9 235.1 125.65 234.9 125.5 234.7 125.5 234.3 125.5 233.4 127 233.4
L 131.3 233.4 131.6 231.4 127.05 231.4
Q 125.45 231.4 124.5 232.15
M 136.2 233.4
Q 134.5 233.4 133.4 234.4 132.25 235.4 131.95 237.25 131.65 239.05 132.5 240.05 133.35 240.95 134.85 240.95
L 137.95 240.95 138.25 239.2 135.15 239.2
Q 134.45 239.2 134.15 238.9 133.9 238.6 133.9 238.1
L 139.05 238.1 139.3 236.25
Q 139.3 235 138.65 234.3 137.9 233.4 136.2 233.4
M 137.25 236.3
L 137.25 236.35 134.25 236.35
Q 134.75 235.15 136.05 235.15 136.85 235.15 137.05 235.45 137.25 235.7 137.25 236.3
M 140.75 224.5
Q 141 223.55 141 222.8 141 220.45 138.6 220.45 135.85 220.45 135.2 223.95
L 135.1 224.85
Q 135.1 227.55 137.95 227.55 139.4 227.55 140.25 227.15 140.25 226.2 140.1 225.5 139.15 225.9 138.25 225.9 137 225.9 137 224.95
L 137.05 224.5 140.75 224.5
M 138.45 221.8
Q 139.35 221.8 139.35 222.65
L 139.2 223.35 137.2 223.35
Q 137.5 221.8 138.45 221.8
M 130.45 221.2
L 130.35 221.2 131 217.65
Q 129.95 217.65 129.2 217.8
L 127.5 227.45 129.25 227.45 130.15 222.35
Q 130.8 221.95 131.35 221.95 132.25 221.95 132.25 222.6
L 131.35 227.45 133.15 227.45 134 222.55 134.05 222
Q 134.05 220.45 132.35 220.45 131.25 220.45 130.45 221.2
M 125.45 220.6
L 125.8 218.85
Q 124.8 218.95 124 219.15
L 123.7 220.6 122.95 220.6 122.7 222.1 123.45 222.1 122.85 225.75
Q 122.85 227.55 124.85 227.55 125.75 227.55 126.4 227.3
L 126.5 226.35 126.45 225.7
Q 125.95 225.9 125.4 225.9 124.65 225.9 124.65 225.45
L 124.65 225.2 125.25 222.1 126.9 222.1
Q 127.2 221.2 127.25 220.6
L 125.45 220.6
M 150.05 221.1
Q 149.25 220.45 147.95 220.45 145.05 220.45 144.45 223.8
L 144.35 224.8
Q 144.35 227.55 147.2 227.55 150.2 227.55 150.75 224.2
L 150.85 223.15
Q 150.85 221.85 150.05 221.1
M 148.95 223.15
L 148.85 224
Q 148.45 226.05 147.35 226.05 146.3 226.05 146.3 224.85 146.3 224.35 146.4 224 146.7 221.95 147.9 221.95 148.95 221.95 148.95 223.15
M 158.85 217.65
L 157.05 217.8 156.55 220.65
Q 155.9 220.45 155.3 220.45 152.3 220.45 151.75 224
L 151.7 224.95
Q 151.7 227.55 153.8 227.55 154.7 227.55 155.35 226.85
L 155.45 226.85 155.35 227.45 157.15 227.45 158.85 217.65
M 155.3 221.95
Q 155.9 221.95 156.25 222.15
L 155.65 225.75
Q 155.15 226 154.55 226 153.6 226 153.6 224.9
L 153.7 223.95
Q 154.05 221.95 155.3 221.95 Z"/>

<path fill="#91C84B" stroke="none" d="
M 113.9 234.3
Q 113.2 233.4 111.7 233.4 110.4 233.4 109.35 234.35 108.65 233.4 107.25 233.4 105.8 233.4 104.75 234.3 103.7 235.2 103.45 236.65
L 102.8 240.95 104.85 240.95 105.55 236.6
Q 105.65 236.15 106.05 235.8 106.4 235.45 106.95 235.45 108.05 235.45 107.9 236.6
L 107.2 240.95 109.25 240.95 109.95 236.6
Q 110.05 236.15 110.45 235.8 110.85 235.45 111.35 235.45 112.5 235.45 112.35 236.6
L 111.65 240.95 113.7 240.95 114.45 236.65
Q 114.65 235.15 113.9 234.3
M 100 233.4
L 96.6 233.4 96.3 235.1 99.95 235.1
Q 100.4 235.1 100.4 235.35 100.45 235.5 100.35 236.2
L 98.05 236.2
Q 95.35 236.2 94.95 238.6 94.55 240.95 97.3 240.95
L 101.6 240.95 102.3 236.7
Q 102.8 233.4 100 233.4
M 100.1 237.85
L 99.9 239.2 97.7 239.2
Q 96.75 239.2 96.85 238.55 96.95 237.85 97.95 237.85
L 100.1 237.85
M 95.5 231.4
L 91.5 231.45
Q 89.25 231.45 87.7 232.65 86.2 233.95 85.9 236.2 85.55 238.4 86.65 239.7 87.75 240.95 90 240.95
L 93.95 240.95 94.85 235.1 90.6 235.1 90.25 237.2 92.4 237.2 92.1 238.9 90 238.9
Q 88.8 238.9 88.3 238.05 87.85 237.35 88 236.4
L 88.05 236
Q 88.25 234.75 89.2 234 89.95 233.4 90.9 233.4
L 95.1 233.4 95.5 231.4
M 122.4 237.25
Q 122.5 236.9 122.5 236.25 122.5 235 121.85 234.3 121.1 233.4 119.4 233.4 117.7 233.4 116.6 234.4 115.45 235.4 115.15 237.25 114.85 239.05 115.75 240.05 116.55 240.95 118.1 240.95
L 121.15 240.95 121.45 239.2 118.35 239.2
Q 117.65 239.2 117.35 238.9 117.2 238.65 117.1 238.1
L 122.3 238.1 122.4 237.25
M 120.55 236.3
L 120.55 236.35 117.45 236.35
Q 117.95 235.15 119.3 235.15 120 235.15 120.3 235.45 120.55 235.8 120.55 236.3 Z"/>
</g>

<g id="Layer2_1_FILL">
<path fill="#505F68" stroke="none" d="
M 16.1 215.3
L 11.25 215.3 11.25 231.85
Q 11.25 235.65 13.95 238.35 16.65 241.05 20.5 241.05 24.3 241.05 27 238.35 29.7 235.65 29.7 231.85 29.7 228.05 27 225.35 24.3 222.65 20.5 222.65 18.15 222.65 16.1 223.75
L 16.1 215.3
M 15.6 231.85
Q 15.6 229.85 17.05 228.4 18.45 227 20.5 227 22.5 227 23.9 228.4 25.35 229.85 25.35 231.85 25.35 233.85 23.9 235.3 22.5 236.7 20.5 236.7 18.45 236.7 17.05 235.3 15.6 233.85 15.6 231.85
M 47.95 227.45
Q 46.75 225.3 44.65 224 42.45 222.65 39.85 222.65 36.05 222.65 33.35 225.35 30.65 228.05 30.65 231.85 30.65 235.65 33.35 238.35 36.05 241.05 39.85 241.05 42.5 241.05 44.75 239.65 46.9 238.3 48.1 236
L 44.3 233.8
Q 43.75 235.1 42.55 235.9 41.35 236.7 39.85 236.7 37.85 236.7 36.45 235.3 35 233.85 35 231.85 35 229.85 36.45 228.4 37.85 227 39.85 227 41.25 227 42.45 227.75 43.6 228.45 44.2 229.65
L 47.95 227.45
M 59.15 231.85
Q 59.15 229.85 60.55 228.4 62 227 64 227 66.95 227 68.35 229.65
L 72.1 227.45
Q 70.9 225.3 68.8 224 66.6 222.65 64 222.65 60.2 222.65 57.5 225.35 54.8 228.05 54.8 231.85 54.8 235.7 57.5 238.35 60.2 241.05 64 241.05 66.65 241.05 68.9 239.65 71.05 238.3 72.2 236
L 68.45 233.8
Q 67.9 235.1 66.7 235.9 65.5 236.7 64 236.7 62 236.7 60.55 235.3 59.15 233.9 59.15 231.85
M 53.9 215.3
L 49.1 215.3 49.1 236.25
Q 49.1 238.25 50.5 239.65 51.9 241.05 53.9 241.05
L 53.9 215.3 Z"/>

<path fill="#C62E40" stroke="none" d="
M 18.45 229.75
Q 17.55 230.6 17.55 231.85 17.55 233.1 18.45 233.95 19.3 234.85 20.55 234.85 21.8 234.85 22.65 233.95 23.55 233.1 23.55 231.85 23.55 230.6 22.65 229.75 21.8 228.85 20.55 228.85 19.3 228.85 18.45 229.75 Z"/>

<path fill="#91C84B" stroke="none" d="
M 61.9 233.95
Q 62.75 234.85 64 234.85 65.25 234.85 66.1 233.95 67 233.1 67 231.85 67 230.6 66.1 229.75 65.25 228.85 64 228.85 62.75 228.85 61.9 229.75 61 230.6 61 231.85 61 233.1 61.9 233.95 Z"/>

<path fill="#F47C36" stroke="none" d="
M 41.95 233.95
Q 42.85 233.1 42.85 231.85 42.85 230.6 41.95 229.75 41.1 228.85 39.85 228.85 38.6 228.85 37.75 229.75 36.85 230.6 36.85 231.85 36.85 233.1 37.75 233.95 38.6 234.85 39.85 234.85 41.1 234.85 41.95 233.95 Z"/>
</g>

<g id="Layer2_2_FILL">
<path fill="#FFFFFF" stroke="none" d="
M 251.85 154
L 246.45 154 244.15 163.95 249.55 163.95 250.05 162.05 247.4 162.05 247.9 159.85 250.3 159.85 250.8 157.95 248.35 157.95 248.75 155.95 251.4 155.95 251.85 154
M 215.9 156.75
Q 215.95 156.4 215.95 156.15 215.95 155.05 215.1 154.45 214.25 153.85 212.6 153.85 211.5 153.85 210.75 154.15 210 154.45 209.5 155.1 209.1 155.7 208.85 156.8
L 208 160.4
Q 207.9 160.85 207.85 161.2 207.85 161.5 207.85 161.8 207.85 162.4 208.05 162.85 208.25 163.25 208.75 163.5 209.15 163.8 209.8 163.95 210.4 164.1 211.15 164.1 212.25 164.1 213 163.8 213.8 163.45 214.25 162.85 214.45 162.5 214.65 162.05 214.85 161.5 215 160.85
L 215.75 157.6
Q 215.85 157.05 215.9 156.75
M 213 155.9
Q 213.2 156.05 213.2 156.3 213.2 156.35 213.2 156.45 213.2 156.5 213.15 156.7
L 212.05 161.3
Q 211.95 161.65 211.9 161.8 211.85 162 211.7 162.05 211.65 162.15 211.5 162.15 211.4 162.2 211.2 162.2 210.9 162.2 210.75 162.05 210.6 161.95 210.55 161.65 210.55 161.6 210.6 161.5 210.6 161.4 210.6 161.3
L 211.7 156.6
Q 211.75 156.3 211.85 156.15 211.9 156 212 155.9 212.1 155.85 212.3 155.75 212.4 155.75 212.55 155.75 212.85 155.75 213 155.9
M 225.05 154
L 222.75 154 221.3 160.4 220.75 154 218.15 154 215.9 163.95 218.2 163.95 219.65 157.65 220.15 163.95 222.8 163.95 225.05 154
M 229.5 154
L 226.75 154 224.5 163.95 229.85 163.95 230.25 162.1 227.65 162.1 229.5 154
M 242.4 154
L 240.95 160.4 240.45 154 237.85 154 235.55 163.95 237.9 163.95 239.35 157.65 239.8 163.95 242.45 163.95 244.75 154 242.4 154
M 236.15 154
L 233.35 154 231.05 163.95 233.85 163.95 236.15 154
M 185.3 154.6
Q 185 154.4 184.65 154.25 184.35 154.1 183.9 154.1 183.7 154 183.45 154 183.15 154 182.8 154
L 179.55 154 177.3 163.95 180.8 163.95
Q 181.5 163.95 182.05 163.9 182.6 163.85 182.95 163.8 183.3 163.7 183.65 163.45 183.95 163.2 184.25 162.9 184.45 162.6 184.6 162.2 184.75 161.75 184.85 161.35 184.95 160.85 184.95 160.45 184.95 159.7 184.6 159.35 184.3 158.9 183.55 158.75 184.05 158.65 184.45 158.5 184.85 158.25 185.15 158 185.45 157.7 185.6 157.15 185.8 156.55 185.8 156 185.8 155.55 185.7 155.2 185.55 154.85 185.3 154.6
M 182.35 155.95
Q 182.75 155.95 182.9 156.05 183.05 156.15 183.05 156.4 183.05 156.45 183.05 156.55 183.05 156.6 183.05 156.75
L 182.9 157.25
Q 182.8 157.7 182.6 157.85 182.35 158 181.9 158
L 181.4 158 181.9 155.95 182.35 155.95
M 182.05 159.95
Q 182.2 160.05 182.2 160.4 182.2 160.45 182.2 160.55 182.2 160.65 182.2 160.7
L 182.05 161.3
Q 182 161.55 181.95 161.65 181.85 161.8 181.75 161.85 181.7 162 181.5 162 181.4 162.05 181.25 162.05
L 180.45 162.05 180.95 159.85 181.45 159.85
Q 181.9 159.85 182.05 159.95
M 193.25 160.85
L 194.85 154 192 154 190.4 161.25
Q 190.25 161.7 190.05 161.95 189.9 162.1 189.55 162.1 189.2 162.1 189.05 162 188.9 161.8 188.9 161.6 188.9 161.55 188.9 161.45 188.9 161.35 188.95 161.2
L 190.65 154 187.85 154 186.3 160.7
Q 186.2 161.1 186.15 161.4 186.15 161.65 186.15 161.85 186.15 162.95 186.95 163.5 187.75 164.05 189.25 164.05 190.3 164.05 191 163.85 191.75 163.6 192.25 163.2 192.55 162.95 192.7 162.55 192.9 162.2 193.05 161.65 193.1 161.5 193.15 161.3 193.2 161.15 193.25 160.85
M 201.1 154
L 198.9 158.3 198.7 154 196 154 197.05 160.75 196.3 163.95 199.1 163.95 199.8 160.75 203.85 154 201.1 154 Z"/>
</g>

<g id="Layer2_3_FILL">
<path fill="#FFFFFF" stroke="none" d="
M 52.1 72.5
L 55.4 58.2 50.2 58.2 47.05 71.75
Q 46.75 73.3 45.55 73.3 44.3 73.3 44.3 72.35
L 47.5 58.2 42.3 58.2 39.05 72.9
Q 39.05 77.05 45 77.05 48.8 77.05 50.5 75.45 51.45 74.6 52.1 72.5
M 71.75 58.2
L 66.65 58.2 62.5 66.25 62.2 58.2 57.05 58.2 59.05 70.8 57.7 76.8 62.85 76.8 64.25 70.8 71.75 58.2
M 38.05 59.3
Q 37.2 58.45 35.45 58.25
L 27.4 58.2 23.05 76.8 29.6 76.8
Q 32.45 76.8 33.7 76.5 35.05 76.1 36.05 74.8 37.4 73.1 37.4 70.25 37.4 67.55 34.8 67.05 36.8 66.65 37.75 65.65 39.05 64.3 39.05 61.85 39.05 60.25 38.05 59.3
M 31.65 61.75
L 32.6 61.75
Q 33.95 61.75 33.95 62.65
L 33.65 64.2
Q 33.3 65.65 31.75 65.65
L 30.8 65.65 31.65 61.75
M 29.05 73.25
L 30 69.1 30.85 69.1
Q 32.35 69.1 32.35 70.15
L 32.05 71.8
Q 31.8 72.7 31.5 72.9 31 73.25 30.55 73.25
L 29.05 73.25
M 132 86.3
L 132.85 82.65 122.7 82.65 118.4 101.25 128.5 101.25 129.4 97.7 124.4 97.7 125.35 93.6 129.95 93.6 130.75 90 126.25 90 127.1 86.3 132 86.3
M 133.2 86.2
L 137.15 86.2 133.65 101.25 138.95 101.25 142.4 86.2 146.35 86.2 147.15 82.65 134.05 82.65 133.2 86.2
M 137.75 58.85
Q 137.05 58.35 135.7 58.2
L 127.25 58.2 123 76.8 128.3 76.8 130 69.2 130.4 69.2 131.45 76.8 136.8 76.8 135.15 68.7
Q 136.9 68.15 137.85 66.9 139.2 64.85 139.2 61.7 139.2 59.8 137.75 58.85
M 131.7 61.85
L 132.65 61.85
Q 133.95 61.85 133.95 62.8
L 133.75 64.15
Q 133.65 64.75 133.4 65 133.25 65.4 132.85 65.5
L 130.8 65.55 131.7 61.85
M 155.9 58.2
L 150.8 58.2 146.45 76.8 156.45 76.8 157.25 73.25 152.45 73.25 155.9 58.2
M 120.55 82.65
L 115.25 82.65 110.3 91.2 112.25 82.65 107.15 82.65 102.85 101.25 108 101.25 109.95 92.65 111.55 101.25 116.9 101.25 114.7 91.75 120.55 82.65
M 81.55 86.2
L 82.35 82.65 69.25 82.65 68.45 86.2 72.4 86.2 68.9 101.25 74.15 101.25 77.6 86.2 81.55 86.2
M 89.35 82.65
L 84.15 82.65 79.9 101.25 85.1 101.25 89.35 82.65
M 97.8 82.25
Q 94.35 82.25 92.6 83.85 91.35 85.05 90.55 88.1
L 89.15 94.4
Q 88.65 96.35 88.65 97.55 88.65 101.65 94.6 101.65 98.35 101.65 100.1 99.9 101.35 98.5 102 95.4
L 102.25 94.4 97 94.4 96.65 96.3
Q 96.25 97.95 95.05 97.95 93.8 97.95 93.8 97
L 96 87.25 96.25 86.7
Q 96.4 86.4 96.55 86.3 96.85 86 97.5 86 98.7 86 98.7 86.95
L 98.15 89.55 103.25 89.55 103.65 87.75
Q 103.9 87 103.9 86.2 103.9 82.25 97.8 82.25
M 95.3 58.2
L 90.1 58.2 86.05 66.25 85.65 58.2 80.6 58.2 82.55 70.8 81.15 76.8 86.35 76.8 87.8 70.8 95.3 58.2
M 106.2 71
L 107.6 64.85
Q 108 63.25 108 62.15 108 57.9 101.75 57.9 98.6 57.9 97 59.15 95.35 60.4 94.75 63.35
L 93.15 70.05
Q 92.75 71.65 92.75 72.75 92.75 75 94.4 76 96.3 77.05 99 77.05 103.25 77.05 104.85 74.75 105.55 73.55 106.2 71
M 101.6 61.45
Q 102.85 61.45 102.85 62.45
L 100.75 71.9
Q 100.4 73 100.1 73.25 99.65 73.55 99.15 73.55 97.9 73.55 97.9 72.5
L 100 63
Q 100.25 62 100.65 61.7 101.05 61.45 101.6 61.45
M 116.75 58.2
L 111.55 58.2 108.7 70.7
Q 108.3 72.3 108.3 72.9 108.3 77.05 114.3 77.05 118 77.05 119.85 75.45 120.85 74.4 121.35 72.5
L 124.65 58.2 119.45 58.2 116.3 71.75
Q 115.95 73.3 114.8 73.3 113.5 73.3 113.5 72.35
L 116.75 58.2
M 231.3 97
L 226.75 97 225.7 101.25 230.3 101.25 231.3 97
M 211.4 82.65
L 205.1 82.65 196.75 101.25 202 101.25 203.6 97.05 206.75 97.05 206.45 101.25 211.5 101.25 211.4 82.65
M 207 93.75
L 204.8 93.75 207.55 86.3 207 93.75
M 220.2 82.65
L 215.15 82.65 217.1 95.35 215.7 101.25 220.9 101.25 222.25 95.35 229.8 82.65 224.6 82.65 220.6 90.75 220.2 82.65
M 211.65 57.9
Q 208.5 57.9 206.9 59.15 205.25 60.4 204.65 63.35
L 203.05 70.05
Q 202.65 71.65 202.65 72.75 202.65 75 204.3 76 206.2 77.05 208.9 77.05 213.15 77.05 214.75 74.75 215.45 73.55 216.1 71
L 217.5 64.85
Q 217.9 63.25 217.9 62.15 217.9 57.9 211.65 57.9
M 210.55 61.7
Q 210.95 61.45 211.5 61.45 212.75 61.45 212.75 62.45
L 210.65 71.9
Q 210.3 73 210 73.25 209.5 73.55 209.05 73.55 207.8 73.55 207.8 72.5
L 209.9 63
Q 210.15 62 210.55 61.7
M 196.6 83.45
Q 195.45 82.8 193.6 82.65
L 186.4 82.65 182.05 101.25 188.7 101.25
Q 191.15 101.25 192 101.1 193.65 100.7 194.6 99.75 195.55 98.65 196.1 97.15
L 198 89.3
Q 198.4 87.35 198.4 86.7 198.4 84.4 196.6 83.45
M 190.8 86.2
L 191.6 86.2
Q 193.1 86.2 193.1 87.4
L 193 88.1 191.2 96.05
Q 190.9 97.25 190.4 97.55 190.1 97.8 188.9 97.8
L 188.15 97.8 190.8 86.2
M 167.85 94.6
Q 167.45 96.1 167.45 97.3 167.45 99.5 169.1 100.45 170.9 101.6 173.7 101.6 177.95 101.6 179.5 99.2 180.25 98 180.85 95.5
L 182.3 89.3
Q 182.7 87.75 182.7 86.6 182.7 82.35 176.45 82.35 173.3 82.35 171.7 83.6 170.05 84.9 169.4 87.9
L 167.85 94.6
M 175.35 86.2
Q 175.65 85.9 176.3 85.9 177.55 85.9 177.55 86.95
L 175.4 96.35
Q 175.1 97.45 174.8 97.7 174.45 98 173.85 98 172.6 98 172.6 97
L 174.7 87.55
Q 174.85 86.55 175.35 86.2
M 168.25 86.2
L 169 82.65 155.9 82.65 155.05 86.2 159 86.2 155.5 101.25 160.8 101.25 164.3 86.2 168.25 86.2
M 168.15 57.9
Q 165 57.9 163.4 59.15 161.85 60.35 161.15 63.35
L 159.55 70.05
Q 159.15 72.2 159.15 72.75 159.15 75 160.9 76 162.7 77.05 165.45 77.05 169.8 77.05 171.25 74.75 172.1 73.4 172.65 71
L 174.1 64.85
Q 174.45 62.7 174.45 62.15 174.45 57.9 168.15 57.9
M 167.15 61.7
Q 167.5 61.45 168.1 61.45 169.25 61.45 169.25 62.45
L 169.2 63.1 167.15 71.9
Q 166.95 72.9 166.5 73.25 166 73.55 165.55 73.55 164.35 73.55 164.35 72.5
L 164.45 71.8 166.4 63
Q 166.75 62 167.15 61.7
M 189.45 61.75
L 190.25 58.2 177.15 58.2 176.35 61.75 180.3 61.75 176.85 76.8 182.05 76.8 185.5 61.75 189.45 61.75
M 190.25 61.75
L 194.2 61.75 190.75 76.8 196 76.8 199.5 61.75 203.45 61.75 204.25 58.2 191.15 58.2 190.25 61.75
M 243.1 76.8
L 247.25 58.2 240.7 58.2 235.6 70.45 235.95 58.2 229.5 58.2 225.25 76.8 229.6 76.8 232.4 64.3 232.4 76.8 235.8 76.8 241.6 63.95 238.65 76.8 243.1 76.8
M 251.7 72.6
L 254.85 72.6 254.55 76.8 259.6 76.8 259.5 58.2 253.2 58.2 244.75 76.8 250.1 76.8 251.7 72.6
M 252.85 69.3
L 255.65 61.85 255.1 69.3 252.85 69.3
M 264.8 58.2
L 265.9 67.05 260.45 76.8 265.75 76.8 268.95 70 268.95 76.8 274.1 76.8 273.25 67.05 278.35 58.2 273.1 58.2 269.9 65.1 269.9 58.2 264.8 58.2 Z"/>
</g>
</defs>

<g transform="matrix( 1, 0, 0, 1, 0,0) ">
<use xlink:href="#Layer2_0_FILL"/>
</g>

<g transform="matrix( 1, 0, 0, 1, 0,0) ">
<use xlink:href="#Layer2_1_FILL"/>
</g>

<g transform="matrix( 1, 0, 0, 1, 0,9.75) ">
<use xlink:href="#Layer2_2_FILL"/>
</g>

<g transform="matrix( 1, 0, 0, 1, 0,-0.35) ">
<use xlink:href="#Layer2_3_FILL"/>
</g>
</svg>
