
<svg xmlns="http://www.w3.org/2000/svg" version="1.1" xmlns:xlink="http://www.w3.org/1999/xlink" preserveAspectRatio="none" x="0px" y="0px" width="300px" height="250px" viewBox="0 0 300 250">
<defs>
<g id="Layer1_0_FILL">
<path fill="#FFFFFF" stroke="none" d="
M 48.7 61.55
L 43.8 61.55 43.8 73 46.9 73 46.9 69.25 48.5 69.25
Q 53.15 69.25 53.15 65.35 53.15 61.55 48.7 61.55
M 46.9 64.15
L 48.65 64.15
Q 50 64.15 50 65.4 50 66.7 48.6 66.7
L 46.9 66.7 46.9 64.15
M 63.1 73
L 63.1 70.25 58.1 70.25 58.1 61.55 54.9 61.55 54.9 73 63.1 73
M 74.25 61.55
L 71.05 61.55 71.05 68.1
Q 71.05 70.35 69.25 70.35 67.45 70.35 67.45 68.1
L 67.45 61.55 64.2 61.55 64.2 68.1
Q 64.2 70.75 65.65 72 66.9 73.2 69.2 73.2 71.5 73.2 72.8 72 74.25 70.7 74.25 68.1
L 74.25 61.55
M 85.65 69.5
Q 85.65 67.95 84.65 67.05 83.75 66.35 81.5 65.75 80.4 65.5 80.05 65.35 79.6 65.1 79.6 64.8 79.6 64.1 80.75 64.1 82.35 64.1 83.95 65.2
L 85.5 62.7
Q 83.55 61.35 80.95 61.35 78.9 61.35 77.65 62.35 76.4 63.35 76.4 64.95 76.4 66.6 77.4 67.45 78.3 68.15 80.55 68.65 81.65 68.95 82.05 69.2 82.45 69.4 82.45 69.7 82.45 70.45 81 70.45 79.45 70.45 77.6 69.3
L 76.1 71.8
Q 78.25 73.2 80.9 73.2 83.1 73.2 84.35 72.35 85.65 71.35 85.65 69.5 Z"/>
</g>

<g id="Layer1_1_FILL">
<path fill="#FFFFFF" stroke="none" d="
M 105.4 126.7
Q 103.35 126.7 102.05 128.2 100.75 129.7 100.75 132.05 100.75 134.5 102 135.95 103.25 137.35 105.3 137.35 107.15 137.35 108.3 136.3 109.45 135.2 109.45 133.25
L 109.45 131.85 105.75 131.85 105.75 133.8 107.4 133.8
Q 107.15 135.35 105.35 135.35 104.25 135.35 103.55 134.45 102.9 133.5 102.9 132.05 102.9 130.6 103.55 129.7 104.2 128.8 105.35 128.8 106.65 128.8 107.35 130.15
L 109.3 129.3
Q 108.15 126.7 105.4 126.7
M 119.95 126.9
L 117.9 126.9 117.9 132.7
Q 117.9 133.95 117.35 134.65 116.75 135.35 115.75 135.35 114.8 135.35 114.2 134.65 113.65 133.9 113.65 132.65
L 113.65 126.9 111.6 126.9 111.6 132.7
Q 111.6 134.9 112.75 136.15 113.85 137.35 115.75 137.35 117.75 137.35 118.85 136.1 119.95 134.9 119.95 132.65
L 119.95 126.9
M 92.4 107.8
Q 92.4 106.6 91.65 105.95 90.95 105.35 89.2 104.9 87.75 104.65 87.75 104.15 87.75 103.65 88.65 103.65 90 103.65 91.1 104.5
L 92.3 102.6
Q 91.35 101.95 90.05 101.7
L 90.05 100.4 87.6 100.4 87.6 101.7
Q 85.3 102.2 85.3 104.3 85.3 105.55 86.1 106.2 86.75 106.75 88.45 107.2 89.95 107.5 89.95 107.95 89.95 108.55 88.8 108.55 87.5 108.55 86.2 107.65
L 85 109.5
Q 86.2 110.3 87.6 110.45
L 87.6 111.75 90.05 111.75 90.05 110.45
Q 92.4 110 92.4 107.8
M 101.75 118.9
L 101.75 101.2 97.65 101.2
Q 97.25 102.45 96.45 102.95 95.7 103.5 93.95 103.6
L 93.95 106.7 96.95 106.7 96.95 118.9 101.75 118.9
M 153.05 143.05
L 151 143.05 151 153.4 153.05 153.4 153.05 143.05
M 147.6 143.9
Q 146.65 143.05 145.1 143.05
L 140.3 143.05 140.3 153.4 142.35 153.4 142.35 149.7 144.45 149.7 146.25 153.4 148.7 153.4 146.7 149.4
Q 148.7 148.6 148.7 146.35 148.7 144.8 147.6 143.9
M 142.35 145.05
L 145.05 145.05
Q 146.55 145.05 146.55 146.4 146.55 147.75 145.05 147.75
L 142.35 147.75 142.35 145.05
M 148.7 126.9
L 146.65 126.9 142.7 137.2 144.9 137.2 145.7 134.9 149.5 134.9 150.3 137.2 152.6 137.2 148.7 126.9
M 148.75 132.95
L 146.45 132.95 147.6 129.5 148.75 132.95
M 138.35 146.35
Q 138.35 144.8 137.25 143.9 136.3 143.05 134.75 143.05
L 130.25 143.05 130.25 153.4 132.3 153.4 132.3 149.75 134.6 149.75
Q 136.3 149.75 137.25 148.95 138.35 148.1 138.35 146.35
M 132.3 145.05
L 134.65 145.05
Q 136.2 145.05 136.2 146.4 136.2 147.75 134.7 147.75
L 132.3 147.75 132.3 145.05
M 127.25 126.9
L 125.25 126.9 121.25 137.2 123.5 137.2 124.35 134.9 128.1 134.9 128.9 137.2 131.2 137.2 127.25 126.9
M 125.05 132.95
L 126.2 129.5 127.4 132.95 125.05 132.95
M 140.45 127.7
Q 139.45 126.9 137.9 126.9
L 133.1 126.9 133.1 137.2 135.2 137.2 135.2 133.5 137.25 133.5 139.15 137.2 141.5 137.2 139.5 133.2
Q 141.5 132.4 141.5 130.15 141.5 128.6 140.45 127.7
M 139.35 130.2
Q 139.35 131.55 137.85 131.55
L 135.2 131.55 135.2 128.9 137.85 128.9
Q 139.35 128.9 139.35 130.2
M 136.15 118.9
L 136.15 101.2 131.1 101.2 131.1 118.9 136.15 118.9
M 127.4 101.2
L 122.95 101.2 120.8 105.95
Q 118.9 110 118.6 111.25 118.2 109.75 116.35 105.95
L 114.2 101.2 109.7 101.2 109.7 118.9 114.3 118.9 114.2 110
Q 114.95 111.9 116.25 114.6
L 118.55 119.5 120.85 114.6
Q 122.15 111.9 122.9 110
L 122.8 118.9 127.4 118.9 127.4 101.2
M 152.65 118.9
L 152.65 114.65 144.8 114.65 144.8 101.2 139.9 101.2 139.9 118.9 152.65 118.9
M 191.7 128.9
L 191.7 126.9 184.5 126.9 184.5 137.2 191.9 137.2 191.9 135.2 186.55 135.2 186.55 132.7 189.55 132.7 189.55 130.7 186.55 130.7 186.55 128.9 191.7 128.9
M 197.35 126.9
L 194.1 126.9 194.1 137.2 197.2 137.2
Q 199.35 137.2 200.8 136 202.5 134.6 202.5 132.05 202.5 126.9 197.35 126.9
M 196.15 135.25
L 196.15 128.9 197.25 128.9
Q 200.35 128.9 200.35 132.05 200.35 135.25 197.2 135.25
L 196.15 135.25
M 162.85 137.2
L 162.85 126.9 160.85 126.9 160.9 133.5 156.45 126.9 154.5 126.9 154.5 137.2 156.55 137.2 156.5 130.4 161.05 137.2 162.85 137.2
M 163.6 144.9
L 163.6 143.05 155.8 143.05 155.8 144.95 161.15 144.9 155.55 151.55 155.55 153.4 163.7 153.4 163.7 151.5 158.05 151.55 163.6 144.9
M 168.1 146.85
L 168.1 145.1 173.2 145.1 173.2 143.05 166.05 143.05 166.05 153.4 173.45 153.4 173.45 151.35 168.1 151.35 168.1 148.85 171.1 148.85 171.1 146.85 168.1 146.85
M 172.9 128.9
L 172.9 126.9 164.85 126.9 164.85 128.9 167.85 128.9 167.85 137.2 169.9 137.2 169.9 128.9 172.9 128.9
M 182.05 128.9
L 182.05 126.9 174.9 126.9 174.9 137.2 182.3 137.2 182.3 135.2 176.95 135.2 176.95 132.7 179.95 132.7 179.95 130.7 176.95 130.7 176.95 128.9 182.05 128.9
M 168.2 118.9
L 168.2 114.65 160.4 114.65 160.4 101.2 155.4 101.2 155.4 118.9 168.2 118.9
M 176.1 118.9
L 176.1 101.2 171.1 101.2 171.1 118.9 176.1 118.9
M 195.45 110.05
Q 195.45 105.75 193.2 103.3 191 100.9 187.3 100.9 183.6 100.9 181.4 103.3 179.1 105.8 179.1 110.1 179.1 114.4 181.35 116.85 183.55 119.2 187.25 119.2 190.9 119.2 193.15 116.85 195.45 114.35 195.45 110.05
M 187.25 105.2
Q 188.7 105.2 189.55 106.45 190.4 107.75 190.4 110.1 190.4 114.95 187.3 114.95 185.8 114.95 184.95 113.65 184.15 112.4 184.15 110.05 184.15 105.2 187.25 105.2
M 209.15 101.2
L 209.15 106
Q 209.15 109.8 209.25 110.6 208.75 109.55 206.55 106.45
L 202.65 101.2 198.35 101.2 198.35 118.9 203 118.9 203 113.5
Q 203 109.75 202.85 108.95 204.1 111.05 205.6 113.05
L 209.85 118.9 213.8 118.9 213.8 101.2 209.15 101.2 Z"/>
</g>

<g id="Layer1_2_FILL">
<path fill="#FFFFFF" stroke="none" d="
M 257.6 165.45
L 256.1 165.45 253.1 173.3 254.75 173.3 255.4 171.55 258.25 171.55 258.9 173.3 260.6 173.3 257.6 165.45
M 257.25 168.6
L 257.75 170.05 255.9 170.05 256.4 168.6
Q 256.55 168.3 256.65 168 256.8 167.65 256.85 167.4 256.9 167.65 257 168 257.1 168.3 257.25 168.6
M 250.85 165.7
Q 250.25 165.45 249.55 165.45
L 245.85 165.45 245.85 173.3 247.4 173.3 247.4 170.5 249 170.5 250.4 173.3 252.2 173.3 250.7 170.25
Q 251.45 169.95 251.85 169.4 252.2 168.85 252.2 167.95 252.2 167.1 251.85 166.55 251.45 166 250.85 165.7
M 250.6 168
Q 250.6 168.5 250.3 168.75 250.05 169 249.5 169
L 247.4 169 247.4 166.95 249.5 166.95
Q 250 166.95 250.3 167.25 250.6 167.45 250.6 168
M 246.05 156.1
Q 245.9 156.5 245.8 156.8 245.7 157.2 245.65 157.4 245.6 157.2 245.5 156.8 245.4 156.45 245.3 156.1
L 243.85 151.55 242.1 151.55 244.9 159.45 246.4 159.45 249.15 151.55 247.45 151.55 246.05 156.1
M 256.1 153.15
L 256.1 151.55 250.65 151.55 250.65 159.45 256.25 159.45 256.25 157.9 252.2 157.9 252.2 156 254.45 156 254.45 154.45 252.2 154.45 252.2 153.15 256.1 153.15
M 265.9 165.45
L 264.55 165.45 263.65 169.25
Q 263.6 169.5 263.55 169.7 263.45 169.95 263.45 170.2 263.35 170.4 263.35 170.55 263.3 170.4 263.3 170.2 263.25 169.95 263.2 169.7 263.2 169.5 263.2 169.25
L 262.5 165.45 260.85 165.45 262.5 173.3 263.95 173.3 264.95 169.25
Q 265 168.9 265.1 168.55 265.15 168.15 265.2 167.95 265.25 168.15 265.3 168.55 265.4 168.9 265.5 169.25
L 266.45 173.3 267.95 173.3 269.6 165.45 268 165.45 267.3 169.25
Q 267.25 169.45 267.2 169.7 267.2 169.95 267.2 170.2 267.15 170.4 267.15 170.55 267.1 170.4 267.05 170.2 267 169.95 266.95 169.7 266.9 169.5 266.85 169.25
L 265.9 165.45
M 264.3 154.05
Q 264.3 153.2 263.9 152.65 263.55 152.1 262.95 151.85 262.35 151.55 261.6 151.55
L 257.95 151.55 257.95 159.45 259.5 159.45 259.5 156.6 261.1 156.6 262.5 159.45 264.3 159.45 262.8 156.4
Q 263.55 156.05 263.9 155.5 264.3 154.95 264.3 154.05
M 259.5 153.1
L 261.55 153.1
Q 262.1 153.1 262.4 153.35 262.65 153.6 262.65 154.1 262.65 154.6 262.4 154.9 262.1 155.1 261.55 155.1
L 259.5 155.1 259.5 153.1
M 272.35 151.55
L 270.6 151.55 269.45 153.45
Q 269.35 153.7 269.15 154 268.95 154.3 268.85 154.55 268.7 154.85 268.6 154.95 268.55 154.85 268.4 154.55 268.25 154.3 268.1 153.95 267.9 153.7 267.75 153.45
L 266.65 151.55 264.85 151.55 267.8 156.35 267.8 159.45 269.4 159.45 269.4 156.3 272.35 151.55
M 242.35 165.8
Q 241.5 165.45 240.35 165.45
L 237.9 165.45 237.9 173.3 240.25 173.3
Q 241.05 173.3 241.7 173.1 242.45 172.85 243 172.4 243.6 171.9 243.9 171.15 244.25 170.4 244.25 169.4 244.25 167.95 243.75 167.1 243.25 166.25 242.35 165.8
M 239.45 166.95
L 240.3 166.95
Q 241.55 166.95 242.1 167.55 242.65 168.15 242.65 169.4 242.65 170.1 242.4 170.65 242.15 171.2 241.6 171.45 241.05 171.8 240.25 171.8
L 239.45 171.8 239.45 166.95
M 240.9 153.15
L 240.9 151.55 235.4 151.55 235.4 159.45 241.05 159.45 241.05 157.9 237 157.9 237 156 239.25 156 239.25 154.45 237 154.45 237 153.15 240.9 153.15 Z"/>
</g>
</defs>

<g transform="matrix( 1, 0, 0, 1, 0,0) ">
<use xlink:href="#Layer1_0_FILL"/>
</g>

<g transform="matrix( 1, 0, 0, 1, 0,0) ">
<use xlink:href="#Layer1_1_FILL"/>
</g>

<g transform="matrix( 1, 0, 0, 1, 0,0) ">
<use xlink:href="#Layer1_2_FILL"/>
</g>
</svg>
