
<svg xmlns="http://www.w3.org/2000/svg" version="1.1" xmlns:xlink="http://www.w3.org/1999/xlink" preserveAspectRatio="none" x="0px" y="0px" width="300px" height="250px" viewBox="0 0 300 250">
<defs>
<g id="Layer0_0_FILL">
<path fill="#FFFFFF" stroke="none" d="
M 76.25 49.05
L 70.55 49.05 66.6 66.1 73.8 66.1
Q 75.5 66.1 76.45 65.7 77.35 65.35 77.75 64.4 78.25 63.5 78.6 61.95
L 80.5 53.55
Q 80.55 53.15 80.6 52.8 80.7 52.4 80.7 52 80.7 50.65 80 50 79.35 49.4 78.4 49.2 77.35 49.05 76.25 49.05
M 76.15 52.15
Q 76.45 52.35 76.45 52.9 76.45 53 76.45 53.15 76.45 53.2 76.4 53.35
L 74.55 61.6
Q 74.35 62.6 73.9 62.95 73.4 63.3 72.4 63.25
L 71.35 63.25 73.95 52 75.4 52
Q 75.85 51.9 76.15 52.15
M 115.75 55.85
L 116.65 52 121 52 121.7 49.05 113.2 49.05 109.25 66.1 118.2 66.1 118.9 63.1 114.05 63.1 115.1 58.75 119.3 58.75 119.95 55.85 115.75 55.85
M 93.9 49.05
L 87.3 49.05 79.95 66.1 84.35 66.1 85.8 62.35 89 62.35 88.65 66.1 92.7 66.1 93.9 49.05
M 89.25 59.4
L 86.9 59.4 90 50.65 89.25 59.4
M 104.8 49.05
L 98.95 49.05 95 66.1 99.15 66.1 100.8 58.95 101.4 58.95 102.55 66.1 106.7 66.1 105.2 58.6
Q 106.05 58.4 106.55 58 107.2 57.6 107.45 56.95 107.75 56.5 108 55.8 108.3 55.05 108.5 54.15 108.7 53.35 108.75 52.75 108.8 52.05 108.8 51.65 108.8 50.3 107.85 49.7 106.9 49.05 104.8 49.05
M 104.85 53.3
Q 104.8 53.55 104.65 54.05 104.6 54.5 104.55 54.8 104.45 55 104.4 55.2 104.2 55.6 103.85 55.75 103.45 55.95 102.85 55.95
L 101.55 55.95 102.4 52 103.8 52
Q 104.4 52 104.65 52.2 104.95 52.35 104.95 52.75 104.95 52.95 104.85 53.3
M 140.85 49.05
L 130.75 49.05 130.05 52 133.15 52 129.95 66.1 134.1 66.1 137.3 52 140.15 52 140.85 49.05
M 150.6 49.05
Q 149.4 48.8 148.1 48.8 147.05 48.8 146 49 145 49.2 144.15 49.75 143.35 50.35 142.8 51.4 142.55 52 142.4 52.65 142.2 53.3 142.05 53.9
L 140.5 60.5
Q 140.35 61.05 140.3 61.55 140.2 62.05 140.2 62.6 140.3 64.1 140.95 64.95 141.7 65.8 142.9 66.1 144.05 66.45 145.35 66.45 146.35 66.45 147.3 66.3 148.25 66.15 149.1 65.7 149.9 65.2 150.45 64.25 150.8 63.7 151 63.15 151.1 62.55 151.25 61.95
L 152.7 56.2
Q 152.9 55.25 153.1 54.4 153.3 53.4 153.3 52.45 153.25 50.95 152.5 50.15 151.75 49.35 150.6 49.05
M 148.95 52.15
Q 149.2 52.4 149.3 52.9 149.2 53.4 149.15 53.95 149 54.5 148.85 55 148.65 55.8 148.45 56.6 148.25 57.35 148.05 58.2 147.9 58.8 147.8 59.4 147.6 59.95 147.45 60.55 147.3 61.2 147.15 61.8 146.95 62.4 146.65 62.9 146.3 63.35 145.6 63.35 145.05 63.35 144.65 63.15 144.3 62.95 144.3 62.35 144.3 61.95 144.4 61.55 144.5 61.1 144.65 60.7 144.9 59.5 145.2 58.35 145.55 57.15 145.8 55.95 146 55.2 146.2 54.45 146.4 53.65 146.65 52.9 146.85 52.25 147.15 52.05 147.5 51.85 148.1 51.85 148.6 51.85 148.95 52.15
M 201.65 49.05
L 193.15 49.05 189.2 66.1 198.2 66.1 198.85 63.1 194.05 63.1 195.05 58.75 199.3 58.75 199.9 55.85 195.75 55.85 196.6 52 201 52 201.65 49.05
M 172.6 49.2
Q 171.55 49.05 170.45 49.05
L 164.75 49.05 160.8 66.1 168 66.1
Q 169.7 66.1 170.65 65.7 171.55 65.35 171.95 64.4 172.45 63.5 172.8 61.95
L 174.7 53.55
Q 174.75 53.15 174.85 52.8 174.9 52.4 174.9 52 174.9 50.65 174.2 50 173.55 49.4 172.6 49.2
M 170.6 53.35
L 168.75 61.6
Q 168.55 62.6 168.1 62.95 167.6 63.3 166.6 63.25
L 165.55 63.25 168.15 52 169.6 52
Q 170.05 51.9 170.35 52.15 170.65 52.35 170.65 52.9 170.65 53 170.65 53.15 170.65 53.2 170.6 53.35
M 184.75 49.05
L 178.9 49.05 174.95 66.1 179.1 66.1 180.75 58.95 181.35 58.95 182.5 66.1 186.7 66.1 185.2 58.6
Q 186 58.4 186.55 58 187.15 57.6 187.45 56.95 187.7 56.5 187.95 55.8 188.25 55.05 188.45 54.15 188.65 53.35 188.7 52.75 188.8 52.05 188.8 51.65 188.8 50.3 187.85 49.7 186.9 49.05 184.75 49.05
M 184.5 54.8
Q 184.45 55 184.35 55.2 184.15 55.6 183.8 55.75 183.4 55.95 182.8 55.95
L 181.5 55.95 182.4 52 183.75 52
Q 184.35 52 184.65 52.2 184.9 52.35 184.9 52.75 184.9 52.95 184.85 53.3 184.75 53.55 184.65 54.05 184.55 54.5 184.5 54.8
M 224.8 49.05
L 219.15 49.05 215.15 66.1 219.05 66.1 221.6 53.4 221.55 66.1 224.95 66.1 230.7 53.4 227.4 66.1 231.3 66.1 235.2 49.05 229.5 49.05
Q 228.25 52.05 226.95 55.05 225.65 58.05 224.35 61.05 224.55 58.05 224.6 55.05 224.7 52.05 224.8 49.05
M 214.05 49.05
L 207.45 49.05 200.1 66.1 204.5 66.1 205.95 62.35 209.15 62.35 208.8 66.1 212.85 66.1 214.05 49.05
M 210.2 50.65
L 209.45 59.4 207.05 59.4 210.2 50.65 Z"/>
</g>
</defs>

<g transform="matrix( 1, 0, 0, 1, 0,0) ">
<use xlink:href="#Layer0_0_FILL"/>
</g>
</svg>
